%YAML 1.1
%TAG !u! tag:unity3d.com,2011:
--- !u!1045 &1
EditorBuildSettings:
  m_ObjectHideFlags: 0
  serializedVersion: 2
  m_Scenes:
  - enabled: 1
    path: Assets/04.Scenes/FirstScene.unity
    guid: 83e0c61b80be4674d8cb78c33f418f4f
  - enabled: 1
    path: Assets/04.Scenes/Demo3.unity
    guid: 007f73e1ec0e8d14daaf975f40863bf0
  m_configObjects: {}
